Court Curb Analysis
…
Model Prep

In order to run a count model, I determined that I needed to have one row per state-year combination. This required a number of tries, but it appears to have finally worked using the following code (though see question section below for more detail).

count_data <- gavelCultureControl %>%
  filter(!(Year %in% c("2007", "43147"))) %>% # filtering out bad data
  group_by(State, Year) %>% 
  mutate(curbs = sum(curbing)) %>%
  distinct(State, Year, .keep_all = TRUE) %>%
  arrange(State, Year) 
  
count_data

## # A tibble: 475 x 37
## # Groups:   State, Year [475]
##    Fullstate State Type      `Bill Number`        Year Elected MoreDefined
##    <chr>     <chr> <chr>     <chr>               <dbl> <chr>   <chr>      
##  1 Alaska    AK    Other     HB 411               2008 Elected Retention  
##  2 Alaska    AK    Salary & SB 30                2009 Elected Retention  
##  3 Alaska    AK    Salary & SB 30                2010 Elected Retention  
##  4 Alaska    AK    Jurisdic HB 88                2011 Elected Retention  
##  5 Alaska    AK    Salary & HB 299               2012 Elected Retention  
##  6 Alaska    AK    Salary & HB 100               2013 Elected Retention  
##  7 Alaska    AK    Salary & HB 100               2014 Elected Retention  
##  8 Alaska    AK    Selection SJR 3 (Constitutio  2015 Elected Retention  
##  9 Alaska    AK    Other     HB 11                2016 Elected Retention  
## 10 Alaska    AK    Other     HB 251               2017 Elected Retention  
## # ... with 465 more rows, and 30 more variables: Description <chr>, `Last
## #   Action` <chr>, curbing <dbl>, RichardLastAction <chr>, `Richard
## #   Description` <chr>, `Date Signed` <dttm>, Unsure <dbl>, `Very
## #   interesting` <chr>, Notes <lgl>, election <chr>, judicial <dbl>,
## #   governor <dbl>, lower <dbl>, upper <dbl>, less <dbl>, more <dbl>,
## #   outside <dbl>, how_much_less <dbl>, how_much_more <dbl>,
## #   distance_closest_branch <dbl>, Moralistic <int>,
## #   Traditionalistic <int>, RepublicanLegslature <dbl>,
## #   SplitLegislature <dbl>, Culture <chr>, legislativeControl <chr>,
…
library(modelr)

grid <- count_data %>%
  data_grid(retention_ideology_upper, .model = curbs2.nb) %>%
  add_predictions(curbs2.nb)

grid

## # A tibble: 475 x 19
## # Groups:   State, Year [475]
##    State  Year retention_ideology_upper Moralistic Traditionalistic
##    <chr> <dbl>                    <dbl>      <int>            <int>
##  1 AK     2008                   0.0350          0                0
##  2 AK     2009                   0.226           0                0
##  3 AK     2010                   0.0193          0                0
##  4 AK     2011                   0.0193          0                0
##  5 AK     2012                   0.132           0                0
##  6 AK     2013                   0.132           0                0
##  7 AK     2014                   0.132           0                0
##  8 AK     2015                   0.132           0                0
##  9 AK     2016                   0.132           0                0
## 10 AK     2017                   0.132           0                0
## # ... with 465 more rows, and 14 more variables:
## #   RepublicanLegslature <dbl>, SplitLegislature <dbl>,
## #   court_lower_dist <dbl>, court_upper_dist <dbl>, retention <dbl>,
## #   partisan <dbl>, nonpartisan <dbl>, partisan_ideology_upper <dbl>,
## #   partisan_ideology_lower <dbl>, nonpartisan_ideology_upper <dbl>,
## #   nonpartisan_ideology_lower <dbl>, retention_ideology_lower <dbl>,
## #   Professionalization <int>, pred <dbl>
…
Up until 2012 data (problems with ideology)

Getting data without the other years

count_data2 <- gavelCultureControl %>%
  filter(!(Year %in% c("2007", "43147", "2013", "2014", "2015", "2016", "2017", "2018"))) %>% # filtering out bad data
  group_by(State, Year) %>% 
  mutate(curbs = sum(curbing)) %>%
  distinct(State, Year, .keep_all = TRUE) %>%
  arrange(State, Year) 
  
count_data2

## # A tibble: 235 x 37
## # Groups:   State, Year [235]
##    Fullstate State Type         `Bill Number`     Year Elected MoreDefined
##    <chr>     <chr> <chr>        <chr>            <dbl> <chr>   <chr>      
##  1 Alaska    AK    Other        HB 411            2008 Elected Retention  
##  2 Alaska    AK    Salary & Bu SB 30             2009 Elected Retention  
##  3 Alaska    AK    Salary & Bu SB 30             2010 Elected Retention  
##  4 Alaska    AK    Jurisdiction HB 88             2011 Elected Retention  
##  5 Alaska    AK    Salary & Bu HB 299            2012 Elected Retention  
##  6 Alabama   AL    Jurisdiction HB 28             2008 Elected Partisan   
##  7 Alabama   AL    Selection    HB 126            2009 Elected Partisan   
##  8 Alabama   AL    Selection    HB 1 (Special S  2010 Elected Partisan   
##  9 Alabama   AL    Other        HB 155            2011 Elected Partisan   
## 10 Alabama   AL    Rule Making HB 14             2012 Elected Partisan   
## # ... with 225 more rows, and 30 more variables: Description <chr>, `Last
## #   Action` <chr>, curbing <dbl>, RichardLastAction <chr>, `Richard
## #   Description` <chr>, `Date Signed` <dttm>, Unsure <dbl>, `Very
## #   interesting` <chr>, Notes <lgl>, election <chr>, judicial <dbl>,
## #   governor <dbl>, lower <dbl>, upper <dbl>, less <dbl>, more <dbl>,
## #   outside <dbl>, how_much_less <dbl>, how_much_more <dbl>,
## #   distance_closest_branch <dbl>, Moralistic <int>,
## #   Traditionalistic <int>, RepublicanLegslature <dbl>,
## #   SplitLegislature <dbl>, Culture <chr>, legislativeControl <chr>,
…
